Name,Age,Sex,Equipment,Division,BodyweightKg,WeightClassKg,Squat1Kg,Squat2Kg,Squat3Kg,Squat4Kg,Best3SquatKg,Bench1Kg,Bench2Kg,Bench3Kg,Bench4Kg,Best3BenchKg,Deadlift1Kg,Deadlift2Kg,Deadlift3Kg,Deadlift4Kg,Best3DeadliftKg,TotalKg,Event,Place,Team,Tested
Madeline Moldenhauer,23,F,Wraps,F_JCR_AAPF,58.5,60,122.5,-127.5,132.5,,132.5,62.5,-65,65,,65,147.5,157.5,-162.5,,157.5,355,SBD,1,,Yes
Kierra Mullins,23,F,Single-ply,F_JES_AAPF,81.5,82.5,80,90,100,,100,47.5,52.5,-57.5,,52.5,80,92.5,-102.5,,92.5,245,SBD,1,,Yes
Danyell Anderson,44,F,Wraps,F_MCR_2_AAPF,54.8,56,85,95,102.5,110,102.5,55,65,-70,,65,102.5,112.5,115,120,115,282.5,SBD,1,Pride Barbell Club,Yes
Lalane Burhenn,45,F,Wraps,F_MCR_2_AAPF,57.1,60,92.5,102.5,-107.5,,102.5,47.5,-52.5,-52.5,,47.5,102.5,107.5,110,,110,260,SBD,1,,Yes
Jodi-Rae Ikens,48,F,Wraps,F_MCR_2_AAPF,65.3,67.5,80,92.5,-97.5,,92.5,47.5,-55,-55,,47.5,112.5,-125,-125,,112.5,252.5,SBD,1,Suthernlin Barbell Club,Yes
Brenda Bowen,46,F,Wraps,F_MCR_2_AAPF,87.8,90,102.5,127.5,-137.5,,127.5,45,-70,-70,,45,102.5,120,127.5,-137.5,127.5,300,SBD,1,,Yes
Suena Massey,43,F,Raw,F_MR_1_AAPF,44,44,50,55,57.5,-62.5,57.5,32.5,35,-42.5,,35,75,77.5,87.5,,87.5,180,SBD,1,Equinox,Yes
Cathy Miller,49,F,Raw,F_MR_2_AAPF,65.6,67.5,-105,-105,105,,105,50,55,-57.5,,55,107.5,115,122.5,,122.5,282.5,SBD,1,Renegade Barbell Club,Yes
Alice Gregg,65,F,Raw,F_MR_6_AAPF,71.9,75,47.5,50,-52.5,,50,37.5,-40,-40,,37.5,70,75,80,85,80,167.5,SBD,1,,Yes
Danyell Anderson,44,F,Wraps,F_OCR_AAPF,54.8,56,85,95,102.5,110,102.5,55,65,-70,,65,102.5,112.5,115,120,115,282.5,SBD,1,Pride Barbell Club,Yes
Erica Schnitker,28,F,Wraps,F_OCR_AAPF,58.3,60,117.5,-127.5,-127.5,,117.5,65,67.5,-70,,67.5,157.5,160,162.5,,162.5,347.5,SBD,1,Dinami,Yes
Siera Brown,31,F,Wraps,F_OCR_AAPF,73.2,75,125,135,145,,145,67.5,72.5,77.5,,77.5,132.5,147.5,155,,155,377.5,SBD,1,Suthernlin Barbell Club,Yes
Jenna Wandtke,26,F,Wraps,F_OCR_AAPF,85.4,90,125,137.5,140,,140,52.5,57.5,-62.5,,57.5,117.5,127.5,137.5,,137.5,335,SBD,1,,Yes
Brenda Bowen,46,F,Wraps,F_OCR_AAPF,87.8,90,102.5,127.5,-137.5,,127.5,45,-70,-70,,45,102.5,120,127.5,-137.5,127.5,300,SBD,2,,Yes
Mackenzie Tomasik,25,F,Wraps,F_OCR_AAPF,123.9,90+,160,182.5,195,,195,-95,95,105,,105,150,175,200,-210,200,500,SBD,1,,Yes
Ashley Bush,33,F,Wraps,F_OCR_AAPF,110.1,90+,125,-140,140,,140,65,-70,-75,,65,135,147.5,152.5,,152.5,357.5,SBD,2,Athletic Advantage,Yes
Amber Dunbar,33,F,Multi-ply,F_OEM_AAPF,88.9,90,195,197.5,-200,,197.5,107.5,-110,-110,,107.5,135,140,145,,145,450,SBD,1,Unreal Fitness,Yes
Kelli Holschuh,27,F,Single-ply,F_OES_AAPF,79,82.5,90,127.5,,,127.5,82.5,92.5,97.5,,97.5,102.5,115,-122.5,,115,340,SBD,1,Wetenhall Babes,Yes
Suena Massey,43,F,Raw,F_OR_AAPF,44,44,50,55,57.5,-62.5,57.5,32.5,35,-42.5,,35,75,77.5,87.5,,87.5,180,SBD,1,Equinox,Yes
Jaclyn Fitzpatrick,32,F,Raw,F_OR_AAPF,59.8,60,82.5,87.5,92.5,,92.5,47.5,52.5,-55,,52.5,102.5,110,117.5,,117.5,262.5,SBD,1,Armageddon,Yes
Sarah Bunta,25,F,Raw,F_OR_AAPF,67.5,67.5,117.5,122.5,-127.5,,122.5,72.5,-77.5,-77.5,,72.5,150,157.5,160,,160,355,SBD,1,,Yes
Gwen Micheal,27,F,Raw,F_OR_AAPF,65,67.5,127.5,-135,-135,,127.5,65,-67.5,67.5,,67.5,137.5,142.5,-147.5,,142.5,337.5,SBD,2,Renegade Barbell Club,Yes
Lindzey Groth,23,F,Raw,F_OR_AAPF,65.8,67.5,87.5,92.5,-105,,92.5,60,67.5,-75,,67.5,122.5,132.5,140,,140,300,SBD,3,,Yes
Sydney Elling,25,F,Raw,F_OR_AAPF,74.4,75,85,95,-105,,95,40,-47.5,-47.5,,40,117.5,127.5,-137.5,,127.5,262.5,SBD,1,Suthernlin Barbell Club,Yes
Rachel Frisbie,25,F,Raw,F_OR_AAPF,79.3,82.5,115,120,-125,,120,50,-52.5,-52.5,,50,122.5,130,137.5,,137.5,307.5,SBD,1,,Yes
Ashley Bush,33,F,Wraps,F_SCR_AAPF,110.1,90+,125,-140,140,,140,65,-70,-75,,65,135,147.5,152.5,,152.5,357.5,SBD,1,Athletic Advantage,Yes
Kayla Richie,35,F,Raw,F_SR_AAPF,80.4,82.5,150,-157.5,157.5,,157.5,85,95,-97.5,,95,150,162.5,170,,170,422.5,SBD,1,Armageddon,Yes
Elyse Valasquez,16,F,Wraps,F_TCR_2_AAPF,54.4,56,92.5,107.5,115,,115,47.5,52.5,-55,,52.5,110,125,-140,,125,292.5,SBD,1,Team Juggernaut Labz,Yes
Brandon Helle,23,M,Wraps,M_JCR_AAPF,99.9,100,255,265,-275,,265,142.5,152.5,-157.5,,152.5,222.5,232.5,235,,235,652.5,SBD,1,Blueline Barbell Club,Yes
Tyler Branch,23,M,Wraps,M_JCR_AAPF,113,125,230,-242.5,,,230,140,147.5,150,,150,257.5,275,-280,,275,655,SBD,1,The Garage,Yes
Matt Suter,22,M,Raw,M_JR_AAPF,97.7,100,227.5,237.5,247.5,,247.5,132.5,142.5,-150,,142.5,232.5,250,-257.5,,250,640,SBD,1,Pride Barabell,Yes
Jerry Adkins,43,M,Wraps,M_MCR_1_AAPF,109.5,110,220,235,-245.5,,235,112.5,122.5,-130,,122.5,220,232.5,,,232.5,590,SBD,1,Sutherlin Barbell Club,Yes
Conan Stoeher,43,M,Wraps,M_MCR_1_AAPF,119.7,125,272.5,287.5,295,,295,162.5,-172.5,-172.5,,162.5,287.5,-300,-300,,287.5,745,SBD,1,RPG/Michigan Barbenders,Yes
Steve Ulch,48,M,Wraps,M_MCR_2_AAPF,137.4,140,217.5,-227.5,240,,240,165,172.5,177.5,,177.5,227.5,237.5,-245,,237.5,655,SBD,1,The Garage,Yes
Archie Leatherman,50,M,Wraps,M_MCR_3_AAPF,106.8,110,185,205,220,,220,142.5,147.5,157.5,,157.5,185,207.5,215,,215,592.5,SBD,1,,Yes
Robert Bierschbach,49,M,Single-ply,M_MES_2_AAPF,136.1,140,255,270,-285,,270,187.5,195,-200,,195,230,245,,,245,710,SBD,1,XXX Powerlifting,Yes
Bob Seeber,54,M,Single-ply,M_MES_3_AAPF,107.1,110,-255,255,-275,,255,75,170,-182.5,,170,245,260,-272.5,,260,685,SBD,1,The Garage,Yes
Chris Meadows,43,M,Raw,M_MR_1_AAPF,111.9,125,230,235,240,,240,-140,-140,-142.5,,,,,,,,,SBD,DQ,,Yes
Randy Cairns,52,M,Raw,M_MR_3_AAPF,117,125,-202.5,,,,,,,,,,,,,,,,SBD,DQ,,Yes
Jeffrey Arioli,52,M,Raw,M_MR_3_AAPF,113.8,125,240,255,260,,260,-185,-185,185,,185,220,230,-240,,230,675,SBD,1,Ironman Barbell,Yes
Jeff Pietka,57,M,Raw,M_MR_4_AAPF,98.7,100,160,162.5,165,,165,120,-125,125,,125,160,170,172.5,,172.5,462.5,SBD,1,Monster Garage Gym/BlueLine Barbell Club,Yes
David Burshtan,56,M,Raw,M_MR_4_AAPF,99.4,100,142.5,157.5,162.5,,162.5,110,120,-127.5,,120,155,167.5,172.5,,172.5,455,SBD,2,Team Stone,Yes
Colin Maresh,26,M,Wraps,M_OCR_AAPF,98.1,100,272.5,-285,285,-290.5,285,127.5,137.5,-145,,137.5,280,-295,-295,,280,702.5,SBD,1,Armegeddon,Yes
Casey Coleman,28,M,Wraps,M_OCR_AAPF,106.9,110,217.5,230,240,,240,145,152.5,157.5,,157.5,240,255,-265,,255,652.5,SBD,1,The Garage,Yes
Chris Hockemeyer,30,M,Wraps,M_OCR_AAPF,109.6,110,227.5,-237.5,-237.5,,227.5,165,-167.5,-167.5,,165,240,245,250,,250,642.5,SBD,2,,Yes
Conan Stoeher,43,M,Wraps,M_OCR_AAPF,119.7,125,272.5,287.5,295,,295,162.5,-172.5,-172.5,,162.5,287.5,-300,-300,,287.5,745,SBD,1,RPG/Michigan Barbenders,Yes
Tatum Susberry,31,M,Wraps,M_OCR_AAPF,147.4,140+,245,262.5,272.5,,272.5,182.5,192.5,200,,200,242.5,260,272.5,,272.5,745,SBD,1,,Yes
Ryan Konneck,26,M,Raw,M_OR_AAPF,98.1,100,227.5,242.5,252.5,,252.5,167.5,175,-182.5,,175,272.5,282.5,-287.5,,282.5,710,SBD,1,Happy Lifter,Yes
Alex Issa,24,M,Raw,M_OR_AAPF,98.7,100,247.5,-252.5,255,,255,165,-172.5,172.5,,172.5,255,265,-272.5,,265,692.5,SBD,2,ISSA Fitness,Yes
Jordan Brand,27,M,Raw,M_OR_AAPF,96.9,100,207.5,227.5,242.5,,242.5,150,157.5,-165,,157.5,260,272.5,-282.5,,272.5,672.5,SBD,3,,Yes
David Salazar,26,M,Raw,M_OR_AAPF,98,100,182.5,195,207.5,,207.5,145,150,-157.5,,150,195,210,-227.5,,210,567.5,SBD,4,Salazar Strength,Yes
Alec Dorner,25,M,Raw,M_OR_AAPF,108.4,110,245,265,280,,280,145,155,-165,,155,325,-347.5,-347.5,,325,760,SBD,1,Brunk's Hunks,Yes
Randy Cairns,52,M,Raw,M_OR_AAPF,117,125,-202.5,,,,,,,,,,,,,,,,SBD,DQ,,Yes
Robert Bain,36,M,Raw,M_OR_AAPF,115.6,125,290,310,-315,,310,150,160,-165,,160,300,320,-330,,320,790,SBD,1,Maroscher Powerlifting team,Yes
Keith Valkner,28,M,Raw,M_OR_AAPF,122.4,125,227.5,242.5,252.5,,252.5,145,155,-162.5,,155,270,305,-325,,305,712.5,SBD,2,Cool Guys,Yes
Robert Bain,36,M,Raw,M_SR_AAPF,115.6,125,290,310,-315,,310,150,160,-165,,160,300,320,-330,,320,790,SBD,1,Maroscher Powerlifting team,Yes
Robert Medacco,39,M,Raw,M_SR_AAPF,116.4,125,205,215,225,,225,195,200,-205,,200,240,250,-257.5,,250,675,SBD,2,,Yes
Andrew Marti,16,M,Raw,M_TR_2_AAPF,138.3,140,185,202.5,220,,220,102.5,110,-117.5,,110,185,202.5,-217.5,,202.5,532.5,SBD,1,,Yes
Magnus Radala,19,M,Raw,M_TR_3_AAPF,101.6,110,145,182.5,225,,225,115,130,137.5,,137.5,215,250,277.5,,277.5,640,SBD,1,,Yes
Robert Medacco Jr,19,M,Raw,M_TR_3_AAPF,118.1,125,-205,210,-215.5,,210,140,143,145,,145,200,202.5,210,,210,565,SBD,1,,Yes
Dane Anderson,22,M,Wraps,M_JCR_AAPF,81.3,82.5,202.5,215,222.5,,222.5,130,137.5,-145,,137.5,232.5,-250,,,232.5,592.5,SBD,1,Suthernlin Barbell Club,Yes
Zach Mendoza,22,M,Wraps,M_JCR_AAPF,88.4,90,210,220,232.5,,232.5,122.5,130,137.5,,137.5,250,-267.5,-267.5,,250,620,SBD,1,The Garage,Yes
Jacob Higman,22,M,Raw,M_JR_AAPF,67.5,67.5,147.5,160,170,,170,110,117.5,-122.5,,117.5,195,-205,-205,,195,482.5,SBD,2,Blueline Barbell Club,Yes
Caleb Valkner,23,M,Raw,M_JR_AAPF,81.4,82.5,145,157.5,162.5,,162.5,95,110,112.5,,112.5,185,210,215,,215,490,SBD,1,Cool Guys,Yes
Joseph Richards,20,M,Raw,M_JR_AAPF,76.3,82.5,175,185,187.5,,187.5,80,-92.5,-92.5,,80,180,192.5,197.5,,197.5,465,SBD,1,,Yes
Alexander Salazar,21,M,Raw,M_JR_AAPF,88.6,90,192.5,207.5,220,,220,135,145,-150,,145,237.5,245,252.5,,252.5,617.5,SBD,1,Salazar Strength,Yes
Charles Oliver,23,M,Raw,M_JR_AAPF,89.7,90,182.5,187.5,192.5,,192.5,137.5,145,147.5,,147.5,220,227.5,-232.5,,227.5,567.5,SBD,2,,Yes
Chris Lindsay,41,M,Wraps,M_MCR_1_AAPF,55.7,56,160,172.5,-182.5,,172.5,85,-90,,,85,195,205.5,212.5,,212.5,470,SBD,1,Blueline Barbell Club,Yes
Shaun Davis,46,M,Wraps,M_MCR_2_AAPF,86.2,90,235,245,260,,260,122.5,-132.5,,,122.5,272.5,282.5,287.5,,287.5,670,SBD,1,Blueline Barbell Club,Yes
Jim Jeurink,64,M,Multi-ply,M_MEM_5_AAPF,88.8,90,165,-182.5,,,165,110,120,,,120,190,,-220,,190,475,SBD,1,,Yes
Chris Lindsay,41,M,Raw,M_MR_1_AAPF,55.7,56,160,172.5,-182.5,,172.5,85,-90,,,85,195,205.5,212.5,,212.5,470,SBD,1,Blueline Barbell Club,Yes
Paul Coats,51,M,Raw,M_MR_3_AAPF,82.1,82.5,182.5,-192.5,-192.5,,182.5,127.5,130,-132.5,,130,227.5,230.5,235,,235,547.5,SBD,1,,Yes
Doug Petersen,63,M,Raw,M_MR_5_AAPF,73.9,75,167.5,183,188,,188,112.5,117.5,120,,120,197.5,212.5,,,212.5,520.5,SBD,1,,Yes
Jon Smoker,71,M,Raw,M_MR_7_AAPF,73.8,75,142.5,152.5,,,152.5,90,100,,,100,142.5,-170.5,-170.5,,142.5,395,SBD,1,Team Stone,Yes
Chris Lindsay,41,M,Wraps,M_OCR_AAPF,55.7,56,160,172.5,-182.5,,172.5,85,-90,,,85,195,205.5,212.5,,212.5,470,SBD,1,Blueline Barbell Club,Yes
Micheal Jones,28,M,Wraps,M_OCR_AAPF,72.4,75,162.5,182.5,190,,190,-115,125,-135,,125,215,240,250,,250,565,SBD,1,,Yes
Dilion Davis,24,M,Wraps,M_OCR_AAPF,81.8,82.5,227.5,240,245,,245,130,135,-137.5,,135,262.5,275,-277.5,,275,655,SBD,1,Blueline Barbell Club,Yes
Jintaro Mikami,28,M,Wraps,M_OCR_AAPF,87.6,90,175,187.5,-195,,187.5,115,120,-125,,120,210,217.5,227.5,,227.5,535,SBD,1,JM22,Yes
Chris Lindsay,41,M,Raw,M_OR_AAPF,55.7,56,160,172.5,-182.5,,172.5,85,-90,,,85,195,205.5,212.5,,212.5,470,SBD,2,Blueline Barbell Club,Yes
Sean Leadbetter,27,M,Raw,M_OR_AAPF,66.1,67.5,150,157.5,-162.5,,157.5,97.5,107.5,-115,,107.5,205,220,-230,,220,485,SBD,1,,Yes
DJ Brandon,28,M,Raw,M_OR_AAPF,80.7,82.5,-197.5,-197.5,197.5,,197.5,-140,145,-150,,145,-232.5,-232.5,-232.5,,,,SBD,DQ,Gcode Nutrition,Yes
Angelo Fortino,25,M,Raw,M_OR_AAPF,79.2,82.5,227.5,242.5,247.5,,247.5,142.5,150,152.5,,152.5,290,-320,-320,,290,690,SBD,1,,Yes
Patrick Linton,25,M,Raw,M_OR_AAPF,79.3,82.5,165,-180,180,,180,100,-110,-110,,100,190,205,-220,,205,485,SBD,1,Armegeddon,Yes
Charles Oliver,23,M,Raw,M_OR_AAPF,89.7,90,182.5,187.5,192.5,,192.5,137.5,145,147.5,,147.5,220,227.5,-232.5,,227.5,567.5,SBD,1,,Yes
Nathan Fox,35,M,Raw,M_SR_AAPF,79.4,82.5,167.5,180,-190,,180,127.5,135,140,,140,187.5,197.5,200,,200,520,SBD,1,,Yes
Josh Becker,16,M,Wraps,M_TCR_2_AAPF,63.3,67.5,145,-157.5,-160,,145,85,-92.5,-92.5,,85,195,-215,,,195,425,SBD,1,,Yes
Zander Manning,16,M,Wraps,M_TCR_2_AAPF,65.3,67.5,127.5,140,145,,145,80,87.5,-90,,87.5,152.5,165,175,,175,407.5,SBD,2,,Yes
Matt Clark,19,M,Wraps,M_TCR_3_AAPF,66.1,67.5,127.5,140,-147.5,,140,107.5,113,117.5,120,117.5,175,-185,-185,,175,432.5,SBD,1,Blueline Barbell Club,Yes
Isaiah Dunn,18,M,Wraps,M_TCR_3_AAPF,86.8,90,180,192.5,205,,205,105,112.5,120,,120,180,187.5,200,,200,525,SBD,1,DBAP BARBELL,Yes
Jackson Rahrig,13,M,Raw,M_TR_1_AAPF,52.8,56,25,27.5,37.5,,37.5,27.5,32.5,40,,40,42.5,50,65,,65,142.5,SBD,1,,Yes
Elijah Dertz,15,M,Raw,M_TR_1_AAPF,87.7,90,175,187.5,-192.5,,187.5,122.5,127.5,130,132.5,130,215,217.5,218,,218,535.5,SBD,1,,Yes
Robert Agramowrcz,17,M,Raw,M_TR_2_AAPF,79.7,82.5,-117.5,-117.5,117.5,,117.5,62.5,-72.5,-72.5,,62.5,165,172.5,-182.5,,172.5,352.5,SBD,1,Armegeddon,Yes
Aubrey Mikovits,22,F,Raw,F_JR_AAPF,88.5,90,,,,,,60,65,72.5,75,72.5,,,,,,72.5,B,1,Flint Barbell Club,Yes
Kathy Wetenhall,64,F,Single-ply,F_MES_5_AAPF,85.8,90,,,,,,85,95,100.25,,100.25,,,,,,100.25,B,1,,Yes
April Johnson,43,F,Raw,F_MR_1_AAPF,74.1,75,,,,,,57.5,62.5,-65,,62.5,,,,,,62.5,B,1,Flint Barbell Club,Yes
Lisa Jacobson,47,F,Raw,F_MR_2_AAPF,69.9,75,,,,,,57.5,60,-65,,60,,,,,,60,B,1,Flint Barbell Club,Yes
Amy Lindsay,45,F,Raw,F_MR_2_AAPF,79.6,82.5,,,,,,55,60,65,,65,,,,,,65,B,1,Blueline Barbell Club,Yes
Janet Sink,75,F,Raw,F_MR_8_AAPF,94.2,90+,,,,,,37.5,42.5,45,47.5,45,,,,,,45,B,1,Armegeddon,Yes
Kelli Holschuh,27,F,Single-ply,F_OES_AAPF,79,82.5,,,,,,82.5,-90,90,,90,,,,,,90,B,1,Wetenhall Babes,Yes
Kathy Wetenhall,64,F,Single-ply,F_OES_AAPF,85.8,90,,,,,,85,95,100.25,,100.25,,,,,,100.25,B,1,,Yes
Jasmine Davis,25,F,Raw,F_OR_AAPF,126.4,90+,,,,,,117.5,130,145,-147.5,145,,,,,,145,B,1,,Yes
Martina Stadel,35,F,Raw,F_SR_AAPF,109.7,90+,,,,,,75,82.5,85,,85,,,,,,85,B,1,Flint Barbell Club,Yes
David Ott,20,M,Raw,M_JR_AAPF,117.7,125,,,,,,150,157.5,165,,165,,,,,,165,B,1,Flint Barbell Club,Yes
Eric Hubbs,54,M,Multi-ply,M_MEM_3_AAPF,130.7,140,,,,,,100,-290,-290,,100,,,,,,100,B,1,Ironman Barbell,Yes
Kevin McKnight,60,M,Single-ply,M_MES_5_AAPF,123.1,125,,,,,,170,177.5,-180,,177.5,,,,,,177.5,B,1,,Yes
Jim Wetenhall,67,M,Single-ply,M_MES_5_AAPF,128.5,140,,,,,,175,182.5,187.5,,187.5,,,,,,187.5,B,1,,Yes
Tone Capone,41,M,Raw,M_MR_1_AAPF,106.6,110,,,,,,150,-157.5,-157.5,,150,,,,,,150,B,1,,Yes
Patrick Morris,49,M,Raw,M_MR_2_AAPF,96.6,100,,,,,,152.5,-160,-170,,152.5,,,,,,152.5,B,1,,Yes
Scott Stadel,45,M,Raw,M_MR_2_AAPF,108.3,110,,,,,,137.5,142.5,-147.5,,142.5,,,,,,142.5,B,1,Flint Barbell Club,Yes
Rob Hensley,50,M,Raw,M_MR_3_AAPF,99.4,100,,,,,,147.5,152.5,-157.5,,152.5,,,,,,152.5,B,1,Flint Barbell Club,Yes
Jeffrey Ellis,58,M,Raw,M_MR_4_AAPF,87.8,90,,,,,,120,-125,125,,125,,,,,,125,B,1,,Yes
Bruce Edwards,59,M,Raw,M_MR_4_AAPF,127.1,140,,,,,,180,187.5,190,192.5,190,,,,,,190,B,1,,Yes
James Spencer,63,M,Raw,M_MR_5_AAPF,74.9,75,,,,,,100,105,110,,110,,,,,,110,B,1,,Yes
Bob Jacobson,60,M,Raw,M_MR_5_AAPF,97.4,100,,,,,,122.5,-140,-140,,122.5,,,,,,122.5,B,1,Grand Haven Powerhouse Gym,Yes
Eric Stone,35,M,Multi-ply,M_OEM_AAPF,80.9,82.5,,,,,,170,190,200,-215.5,200,,,,,,200,B,1,Team Stone,Yes
Steve Boring,30,M,Raw,M_OR_AAPF,106.4,110,,,,,,175,187.5,-197.5,,187.5,,,,,,187.5,B,1,,Yes
Ryan McCollum,35,M,Raw,M_SR_AAPF,147.4,140+,,,,,,182.5,185,-187.5,,185,,,,,,185,B,1,Team Litehouse,Yes
Kierra Mullins,23,F,Single-ply,F_JES_AAPF,81.5,82.5,,,,,,,,,,,80,90,102.5,107.5,102.5,102.5,D,1,,Yes
Rikki Tobolsky,40,F,Raw,F_MR_1_AAPF,85.2,90,,,,,,,,,,,110,112.5,117.5,,117.5,117.5,D,1,,Yes
Amy Lindsay,45,F,Raw,F_MR_2_AAPF,79.6,82.5,,,,,,,,,,,102.5,110,-112.5,,110,110,D,1,Blueline Barbell Club,Yes
Janet Sink,75,F,Raw,F_MR_8_AAPF,94.2,90+,,,,,,,,,,,75,82.5,87.5,90,87.5,87.5,D,1,Armegeddon,Yes
Cody Brittany,27,F,Raw,F_OR_AAPF,53.9,56,,,,,,,,,,,125,132.5,142.5,,142.5,142.5,D,1,,Yes
Kaylin Fellows,15,F,Raw,F_TR_1_AAPF,60.5,67.5,,,,,,,,,,,70,80,-85,,80,80,D,1,Blueline Barbell Club,Yes
