Division,WeightClassKg,Place,Name,Team,BodyweightKg,Best3SquatKg,Best3BenchKg,Best3DeadliftKg,TotalKg,Equipment,Event,Sex
Boys,52,1,Bryce Hazelwood,Saratoga West Hardin,49.53,102.06,56.7,108.86,267.62,Single-ply,SBD,M
Boys,52,2,Christian DeBarge,Hull-Daisetta,47.99,83.91,43.09,104.33,231.33,Single-ply,SBD,M
Boys,52,DQ,Randy Fregia,Hull-Daisetta,47.45,,,,,Single-ply,SBD,M
Boys,52,DQ,Gunner Stanley,Deweyville,43.54,52.16,,68.04,,Single-ply,SBD,M
Boys,56,1,John Burnett,Saratoga West Hardin,55.07,102.06,56.7,104.33,263.08,Single-ply,SBD,M
Boys,56,2,Lane Totino,Deweyville,55.79,70.31,45.36,97.52,213.19,Single-ply,SBD,M
Boys,60,1,Luke Martin,High Island,58.24,167.83,111.13,158.76,437.72,Single-ply,SBD,M
Boys,60,2,Keevin Gordon,Deweyville,59.42,120.2,79.38,138.35,337.93,Single-ply,SBD,M
Boys,60,3,Francisco Trujillo,Hardin,59.87,104.33,68.04,133.81,306.17,Single-ply,SBD,M
Boys,60,4,Chase Williams,Deweyville,59.87,102.06,86.18,113.4,301.64,Single-ply,SBD,M
Boys,67.5,1,Darin Lavergne,Deweyville,66.68,156.49,88.45,147.42,392.36,Single-ply,SBD,M
Boys,67.5,2,Shawn Taylor,Hull-Daisetta,64.95,136.08,88.45,154.22,378.75,Single-ply,SBD,M
Boys,67.5,3,Kaiden Stoma,Deweyville,66.68,124.74,92.99,138.35,356.07,Single-ply,SBD,M
Boys,67.5,4,Noah Roth,Hardin,63.5,127.01,74.84,142.88,344.73,Single-ply,SBD,M
Boys,67.5,5,Will Sims,Hardin,63.05,120.2,70.31,149.69,340.19,Single-ply,SBD,M
Boys,67.5,6,Mikey Strham,Saratoga West Hardin,65.68,102.06,56.7,136.08,294.84,Single-ply,SBD,M
Boys,67.5,7,Cody Farr,Saratoga West Hardin,64.32,102.06,61.23,117.93,281.23,Single-ply,SBD,M
Boys,67.5,8,John Mayeux,Deweyville,63.5,102.06,63.5,102.06,267.62,Single-ply,SBD,M
Boys,67.5,9,Ma'Cray Phillips,Saratoga West Hardin,64.41,102.06,61.23,,163.29,Single-ply,SB,M
Boys,67.5,10,Broady Simmons,Hull-Daisetta,64.32,54.43,68.04,,122.47,Single-ply,SB,M
Boys,67.5,DQ,Zevin Loftin,Saratoga West Hardin,64.95,140.61,,145.15,,Single-ply,SBD,M
Boys,67.5,DQ,Kerison Durst,Hardin,65.77,,,,,Single-ply,SBD,M
Boys,75,1,Matthew Anderson,Saratoga West Hardin,70.03,176.9,97.52,163.29,437.72,Single-ply,SBD,M
Boys,75,2,Kade Goodwin,Hardin,74.39,138.35,106.59,149.69,394.63,Single-ply,SBD,M
Boys,75,3,Garrett Marquis,Hardin,71.21,142.88,81.65,161.03,385.55,Single-ply,SBD,M
Boys,75,4,Garrett Shannon,Deweyville,73.48,151.95,83.91,124.74,360.61,Single-ply,SBD,M
Boys,75,5,Diego Lopez,Hardin,74.84,136.08,77.11,142.88,356.07,Single-ply,SBD,M
Boys,75,6,Chaise Juarez,Saratoga West Hardin,70.22,106.59,81.65,129.27,317.51,Single-ply,SBD,M
Boys,75,7,Skylar Beane,Deweyville,72.57,106.59,72.57,117.93,297.1,Single-ply,SBD,M
Boys,75,8,Jake Hargroue,Hardin,73.94,104.33,81.65,106.59,292.57,Single-ply,SBD,M
Boys,75,DQ,Bryan Picou,Deweyville,68.04,124.74,,,,Single-ply,SBD,M
Boys,82.5,1,Taten Guillory,Hull-Daisetta,81.01,124.74,88.45,142.88,356.07,Single-ply,SBD,M
Boys,82.5,2,Isaac Murphy,Saratoga West Hardin,77.56,124.74,70.31,129.27,324.32,Single-ply,SBD,M
Boys,82.5,DQ,Tyler Snead,Saratoga West Hardin,78.38,133.81,,,,Single-ply,SBD,M
Boys,90,1,Colton Kopeski,Hardin,89.81,156.49,108.86,199.58,464.93,Single-ply,SBD,M
Boys,90,2,Levi Perkins,Deweyville,83.91,161.03,83.91,183.7,428.64,Single-ply,SBD,M
Boys,90,3,Rodney Richerson,Deweyville,84.37,145.15,104.33,161.03,410.5,Single-ply,SBD,M
Boys,90,4,BJ Peterson,Hull-Daisetta,86.18,161.03,92.99,142.88,396.89,Single-ply,SBD,M
Boys,90,5,Bailey Edmonson,Hull-Daisetta,89.81,104.33,68.04,120.2,292.57,Single-ply,SBD,M
Boys,90,DQ,Justin Lilyquist,Deweyville,86.64,,,,,Single-ply,SBD,M
Boys,90,DQ,Preston Price,Saratoga West Hardin,88.27,151.95,,140.61,,Single-ply,SBD,M
Boys,100,1,Nathan Hughes,Deweyville,99.34,142.88,74.84,167.83,385.55,Single-ply,SBD,M
Boys,100,2,Daniel Gonzalez,Hardin,95.25,149.69,79.38,129.27,358.34,Single-ply,SBD,M
Boys,100,3,David Elliot,Hardin,99.34,156.49,92.99,,249.48,Single-ply,SB,M
Boys,110,1,Sean Patsfield,Deweyville,107.5,183.7,113.4,188.24,485.34,Single-ply,SBD,M
Boys,110,2,Taylor Graham,Hardin,102.51,156.49,104.33,181.44,442.25,Single-ply,SBD,M
Boys,110,3,Colten Williams,Saratoga West Hardin,109.77,208.65,83.91,142.88,435.45,Single-ply,SBD,M
Boys,110,4,Cade Peavey,Hardin,102.06,149.69,86.18,158.76,394.63,Single-ply,SBD,M
Boys,110,5,Dakota Seth,Saratoga West Hardin,104.33,136.08,83.91,129.27,349.27,Single-ply,SBD,M
Boys,125,1,Collin Chesson,Saratoga West Hardin,123.83,288.03,192.78,242.67,723.48,Single-ply,SBD,M
Boys,125,2,Dakota Ford,Hull-Daisetta,112.72,215.46,136.08,215.46,566.99,Single-ply,SBD,M
Boys,125,3,Anthony Wimmer,Deweyville,123.83,210.92,97.52,183.7,492.15,Single-ply,SBD,M
Boys,125,4,Austin Yocum,Hardin,121.11,149.69,88.45,154.22,392.36,Single-ply,SBD,M
Boys,125,DQ,Kyle Fregia,Hull-Daisetta,122.02,,,,,Single-ply,SBD,M
Boys,125+,1,Wyatt Burgess,Hardin,145.6,231.33,136.08,204.12,571.53,Single-ply,SBD,M
Boys,125+,2,Hunter Belesky,Saratoga West Hardin,167.83,226.8,113.4,188.24,528.44,Single-ply,SBD,M
Boys,125+,3,Jacob Hall,Hull-Daisetta,129.82,192.78,117.93,167.83,478.54,Single-ply,SBD,M
Boys,125+,4,Nathan Henson,Deweyville,126.55,185.97,108.86,158.76,453.59,Single-ply,SBD,M
