Division,WeightClassKg,Place,Name,Team,BodyweightKg,Best3SquatKg,Best3BenchKg,Best3DeadliftKg,TotalKg,Equipment,Event,Sex
Boys,52,1,David Carrasco,Big Lake Reagan County,48.08,129.27,70.31,133.81,333.39,Single-ply,SBD,M
Boys,52,2,Johnny Gomez,Rocksprings,50.35,102.06,70.31,138.35,310.71,Single-ply,SBD,M
Boys,52,3,Trey Wachsmann,Miles,51.26,122.47,61.23,127.01,310.71,Single-ply,SBD,M
Boys,52,4,Trey Phillips,San Angelo Grape Creek,39.92,52.16,20.41,65.77,138.35,Single-ply,SBD,M
Boys,56,1,Ryan Folds,San Angelo Grape Creek,53.98,158.76,77.11,151.95,387.82,Single-ply,SBD,M
Boys,56,2,Miguel Arroyo,San Angelo Lake View,55.79,138.35,83.91,156.49,378.75,Single-ply,SBD,M
Boys,56,3,Raul Rey,Big Lake Reagan County,54.43,133.81,63.5,142.88,340.19,Single-ply,SBD,M
Boys,56,4,Nick Gomez,McCamey,54.88,108.86,61.23,136.08,306.17,Single-ply,SBD,M
Boys,60,1,Cody Coombs,San Angelo Lake View,59.42,158.76,90.72,158.76,408.23,Single-ply,SBD,M
Boys,60,2,David Corbin,San Angelo Grape Creek,57.15,142.88,65.77,151.95,360.61,Single-ply,SBD,M
Boys,67.5,1,Angel Cordova,Rocksprings,63.5,170.1,106.59,165.56,442.25,Single-ply,SBD,M
Boys,67.5,2,Anthony Olivares,Eldorado,60.33,163.29,95.25,163.29,421.84,Single-ply,SBD,M
Boys,67.5,3,Shay Smith,McCamey,67.13,142.88,81.65,181.44,405.97,Single-ply,SBD,M
Boys,67.5,4,Henry Ramos,Sonora,64.86,149.69,83.91,167.83,401.43,Single-ply,SBD,M
Boys,67.5,5,Cade Cramer,Mertzon Irion County,64.32,163.29,90.72,142.88,396.89,Single-ply,SBD,M
Boys,67.5,6,Brad Gryder,Mertzon Irion County,60.96,140.61,86.18,140.61,367.41,Single-ply,SBD,M
Boys,67.5,7,Gaven DeLeon,San Angelo Grape Creek,64.41,142.88,61.23,163.29,367.41,Single-ply,SBD,M
Boys,67.5,8,Jeremy Mireles,San Angelo Lake View,63.5,124.74,83.91,149.69,358.34,Single-ply,SBD,M
Boys,67.5,9,Zeke Rodriguez,San Angelo Lake View,62.14,124.74,81.65,140.61,347,Single-ply,SBD,M
Boys,67.5,10,Aiden Fuentes,Ozona,66.68,136.08,70.31,136.08,342.46,Single-ply,SBD,M
Boys,67.5,11,John Gonzales,Miles,63.96,106.59,70.31,129.27,306.17,Single-ply,SBD,M
Boys,67.5,12,Paco Ramirez,Rocksprings,63.96,99.79,68.04,136.08,303.91,Single-ply,SBD,M
Boys,67.5,13,Marcus Perez,Ozona,60.33,108.86,58.97,124.74,292.57,Single-ply,SBD,M
Boys,75,1,Oscar Narvaez,Mertzon Irion County,68.13,204.12,102.06,199.58,505.76,Single-ply,SBD,M
Boys,75,2,Anthony Perez,Ozona,71.67,165.56,115.67,183.7,464.93,Single-ply,SBD,M
Boys,75,3,Diego Perez #1,Rocksprings,68.04,167.83,108.86,179.17,455.86,Single-ply,SBD,M
Boys,75,4,Kevin Yates,Christoval,68.49,188.24,90.72,176.9,455.86,Single-ply,SBD,M
Boys,75,5,Leroy Garcia,Miles,73.48,142.88,97.52,181.44,421.84,Single-ply,SBD,M
Boys,75,6,Emannuel Sarabia,Ozona,68.04,161.03,86.18,161.03,408.23,Single-ply,SBD,M
Boys,75,7,Juan Flores,Rocksprings,69.4,142.88,79.38,156.49,378.75,Single-ply,SBD,M
Boys,75,8,Frankie Villanueva,Eldorado,72.57,136.08,68.04,142.88,347,Single-ply,SBD,M
Boys,75,9,Austin Damian,Ozona,74.84,129.27,63.5,122.47,315.25,Single-ply,SBD,M
Boys,75,10,Mark Johnson,Miles,74.84,97.52,72.57,133.81,303.91,Single-ply,SBD,M
Boys,75,11,Lazaro Rodriguez,Ozona,68.04,117.93,56.7,122.47,297.1,Single-ply,SBD,M
Boys,82.5,1,Raziel Galindo,Rocksprings,78.47,192.78,124.74,215.46,532.97,Single-ply,SBD,M
Boys,82.5,2,Julio Narvaez,Eldorado,80.74,190.51,111.13,188.24,489.88,Single-ply,SBD,M
Boys,82.5,3,Steban Flores,Ozona,80.29,172.37,129.27,185.97,487.61,Single-ply,SBD,M
Boys,82.5,4,Justin Ortiz,Big Lake Reagan County,76.66,142.88,86.18,179.17,408.23,Single-ply,SBD,M
Boys,82.5,5,Juan Baez,Sonora,79.38,170.1,83.91,149.69,403.7,Single-ply,SBD,M
Boys,82.5,6,Hunter Maynard,McCamey,79.83,138.35,97.52,167.83,403.7,Single-ply,SBD,M
Boys,82.5,7,Aj Alonso,Big Lake Reagan County,82.1,142.88,86.18,174.63,403.7,Single-ply,SBD,M
Boys,82.5,8,Joseph Delgado,Sonora,75.3,124.74,83.91,147.42,356.07,Single-ply,SBD,M
Boys,82.5,9,Issahia Valenzuela,Big Lake Reagan County,81.65,120.2,68.04,133.81,322.05,Single-ply,SBD,M
Boys,82.5,DQ,Teaggan DeLeon,San Angelo Grape Creek,80.74,102.06,68.04,,,Single-ply,SBD,M
Boys,90,1,Javarious Smith,San Angelo Lake View,89.36,215.46,120.2,204.12,539.77,Single-ply,SBD,M
Boys,90,2,Nico Ortiz,Big Lake Reagan County,89.81,195.04,106.59,179.17,480.81,Single-ply,SBD,M
Boys,90,3,Kodee Warriner,Big Lake Reagan County,88.45,176.9,88.45,197.31,462.66,Single-ply,SBD,M
Boys,90,4,Giovanni Herrera,San Angelo Lake View,88.45,188.24,115.67,145.15,449.06,Single-ply,SBD,M
Boys,90,5,Edgar Damian,Ozona,82.55,158.76,115.67,165.56,439.98,Single-ply,SBD,M
Boys,90,6,Donatello Tovar,San Angelo Lake View,88.9,170.1,102.06,151.95,424.11,Single-ply,SBD,M
Boys,90,7,Mark Chavez,Sonora,85.28,174.63,111.13,124.74,410.5,Single-ply,SBD,M
Boys,90,8,Chris Smith,San Angelo Grape Creek,85.28,142.88,86.18,149.69,378.75,Single-ply,SBD,M
Boys,90,9,Chris Llanas,Miles,86.18,136.08,92.99,142.88,371.95,Single-ply,SBD,M
Boys,90,10,Irving Rodriguez,Ozona,83.91,138.35,83.91,117.93,340.19,Single-ply,SBD,M
Boys,90,11,Ty Perez,Sonora,83.91,108.86,97.52,102.06,308.44,Single-ply,SBD,M
Boys,100,1,John Cordova,Rocksprings,92.53,226.8,142.88,224.53,594.21,Single-ply,SBD,M
Boys,100,2,Christian Baca,San Angelo Lake View,99.79,215.46,142.88,213.19,571.53,Single-ply,SBD,M
Boys,100,3,Anthony Gloria,San Angelo Lake View,91.63,199.58,111.13,204.12,514.83,Single-ply,SBD,M
Boys,100,4,Luis Salas,Iraan,92.08,199.58,74.84,156.49,430.91,Single-ply,SBD,M
Boys,100,5,Luke Arana,McCamey,95.71,181.44,83.91,158.76,424.11,Single-ply,SBD,M
Boys,100,6,Christian Ramon,Sonora,96.16,142.88,102.06,149.69,394.63,Single-ply,SBD,M
Boys,100,7,Michael Muniz,Iraan,90.72,142.88,72.57,147.42,362.87,Single-ply,SBD,M
Boys,100,8,Colton Williams,Miles,91.17,133.81,83.91,142.88,360.61,Single-ply,SBD,M
Boys,110,1,Travis Carter,Iraan,107.5,204.12,102.06,181.44,487.61,Single-ply,SBD,M
Boys,110,2,Albert Arispe,Eldorado,104.33,151.95,106.59,170.1,428.64,Single-ply,SBD,M
Boys,110,3,Gerry Salazar,McCamey,101.6,124.74,83.91,113.4,322.05,Single-ply,SBD,M
Boys,110,DQ,Zack Cook,Miles,106.14,158.76,,,,Single-ply,SBD,M
Boys,125,1,Tristan Ortiz,Big Lake Reagan County,113.85,272.16,127.01,219.99,619.15,Single-ply,SBD,M
Boys,125,2,Bryndon Robles,Sonora,121.56,204.12,170.1,185.97,560.19,Single-ply,SBD,M
Boys,125,3,Julian Guerra,Sonora,122.47,185.97,158.76,181.44,526.17,Single-ply,SBD,M
Boys,125,4,Jason Carrillo,Rocksprings,111.58,192.78,124.74,195.04,512.56,Single-ply,SBD,M
Boys,125,5,Emiliano Hernandez,Eldorado,112.04,136.08,92.99,181.44,410.5,Single-ply,SBD,M
Boys,125+,1,Michael Jordan,San Angelo Lake View,139.71,226.8,127.01,254.01,607.81,Single-ply,SBD,M
Boys,125+,2,Fred Enriquez,Rocksprings,150.59,222.26,117.93,206.38,546.58,Single-ply,SBD,M
Boys,125+,3,Taylor Elkins,Mertzon Irion County,136.08,195.04,147.42,185.97,528.44,Single-ply,SBD,M
