Name,Sex,Age,Division,Equipment,BodyweightKg,WeightClassKg,Squat1Kg,Squat2Kg,Squat3Kg,Best3SquatKg,Bench1Kg,Bench2Kg,Bench3Kg,Best3BenchKg,Deadlift1Kg,Deadlift2Kg,Deadlift3Kg,Best3DeadliftKg,TotalKg,Event,Place
Erin Williams,F,,F_J_R,Raw,50.5,52,60,65,67.5,67.5,37.5,40,42.5,42.5,80,90,-95,90,200,SBD,1
Nicola Bennett,F,,F_J_R,Raw,58.1,60,95,-102.5,-102.5,95,55,62.5,-65,62.5,120,-130,130,130,287.5,SBD,1
Aisling Perbody,F,,F_J_R,Raw,67.5,67.5,80,90,-100,90,55,60,-65,60,130,140,145,145,295,SBD,1
Dawn Barlow,F,,F_J_R,Raw,70.9,75,135,145,-150,145,72.5,77.5,-82.5,77.5,145,155,160,160,382.5,SBD,1
Kate Vale,F,,F_M2_R,Raw,60,60,75,80,-82.5,80,-40,40,45,45,95,100,-102.5,100,225,SBD,2
Jo Wood,F,,F_M2_R,Raw,59.6,60,70,75,-80,75,45,-50,-50,45,110,120,-122.5,120,240,SBD,1
Neami Bheemah,F,,F_O_R,Raw,48.9,52,85,90,92.5,92.5,52.5,-57.5,-57.5,52.5,105,110,115,115,260,SBD,1
Kathryn Osborne,F,,F_O_R,Raw,57,60,87.5,95,100,100,47.5,50,-52.5,50,115,125,130,130,280,SBD,1
Karina Blight,F,,F_O_R,Raw,64.3,67.5,82.5,-92.5,-92.5,82.5,-60,60,-65,60,105,115,120,120,262.5,SBD,1
Hannah Venn-Munns,F,,F_O_R,Raw,80.2,82.5,70,77.5,82.5,82.5,55,-57.5,-57.5,55,110,117.5,-120,117.5,255,SBD,1
Evie Callow,F,,F_R_C,Wraps,109.3,90+,125,140,150,150,57.5,67.5,72.5,72.5,160,180,192.5,192.5,415,SBD,1
Annie Harding,F,,F_T2_R,Raw,64.8,67.5,95,97.5,-102.5,97.5,42.5,47.5,-50,47.5,-122.5,122.5,130,130,275,SBD,2
Waga Algafari,F,,F_T2_R,Raw,66.2,67.5,120,125,130,130,55,60,-62.5,60,115,125,-132.5,125,315,SBD,1
Rhianon Lovelace,F,,F_T3_R,Raw,58.6,60,95,105,115,115,60,65,-70,65,125,135,145,145,325,SBD,1
Karly Short,F,,M_M1_R,Raw,95.2,90+,-105,105,-122.5,105,65,72.5,75,75,145,160,-170,160,340,SBD,1
Patricia Wetton,F,,M_M3_R,Raw,74.3,75,70,80,90,90,50,57.5,,57.5,100,115,-130,115,262.5,SBD,1
Mike Jones #1,M,,M_J_C,Wraps,99.1,100,215,230,237.5,237.5,150,160,-165,160,240,260,272.5,272.5,670,SBD,1
Nikki Price,M,,M_J_R,Raw,65.8,67.5,150,162.5,170,170,82.5,-92.5,-92.5,82.5,172.5,192.5,-200,192.5,445,SBD,1
Jo Hatchard,M,,M_J_R,Raw,72.4,75,140,-155,155,155,110,-112.5,,110,180,190,-200,190,455,SBD,3
David Miller,M,,M_J_R,Raw,74.8,75,152.5,160,-165,160,130,135,-140,135,215,222.5,230,230,525,SBD,2
Ben Legg,M,,M_J_R,Raw,73,75,175,187.5,197.5,197.5,125,135,-140,135,200,220,-230,220,552.5,SBD,1
Will Smith,M,,M_J_R,Raw,78,82.5,120,132.5,-145,132.5,90,97.5,-100,97.5,170,185,-200,185,415,SBD,3
Nathaniel Robinson,M,,M_J_R,Raw,81.4,82.5,150,-160,160,160,110,120,-125,120,200,210,-220,210,490,SBD,2
Scott Govier,M,,M_J_R,Raw,78.2,82.5,165,185,-192.5,185,-100,105,115,115,190,205,215,215,515,SBD,1
Daniel Hubble,M,,M_J_R,Raw,89.6,90,212.5,222.5,232.5,232.5,155,162.5,170,170,240,250,260,260,662.5,SBD,1
Ross Sheppard,M,,M_J_R,Raw,90.4,100,165,175,185,185,107.5,112.5,115,115,210,215,217.5,217.5,517.5,SBD,4
Dan Brunt-Murphy,M,,M_J_R,Raw,98.9,100,200,210,,210,160,-170,-175,160,210,225,-240,225,595,SBD,3
Adam Riman,M,,M_J_R,Raw,96.1,100,205,215,225,225,130,137.5,-145,137.5,270,290,-300,290,652.5,SBD,2
Miles Hutchinson,M,,M_J_R,Raw,99.2,100,-220,220,,220,160,-170,175,175,-275,-275,275,275,670,SBD,1
Kurt McEvansoneya,M,,M_J_R,Raw,109.6,110,200,-215,,200,130,140,-150,140,250,-262.5,262.5,262.5,602.5,SBD,1
Carl Thompson,M,,M_J_R,Raw,116,125,220,240,262.5,262.5,180,200,-205,200,220,240,260,260,722.5,SBD,1
Frankie Kemp,M,,M_J_R,Raw,130.9,140,200,220,-235,220,142.5,157.5,-165,157.5,225,247.5,260,260,637.5,SBD,1
Scott Massingham,M,,M_M1_E,Single-ply,113.6,125,270,,,270,-230,230,242.5,242.5,270,290,300,300,812.5,SBD,1
Mark Taylor,M,,M_M1_R,Raw,59.8,60,110,120,-125,120,75,80,85,85,130,140,152.5,152.5,357.5,SBD,1
Steve Short,M,,M_M1_R,Raw,74.2,75,165,180,195,195,127.5,135,,135,210,-235,-235,210,540,SBD,1
Randall Crooks,M,,M_M1_R,Raw,96.5,100,,,,,165,175,180,180,,,,,180,B,1
Randall Crooks,M,,M_M1_R,Raw,96.5,100,,,,,,,,,280,-290,-290,280,280,D,1
Stuart Bell,M,,M_M1_R,Raw,96.9,100,190,210,-220,210,140,150,160,160,200,215,-230,215,585,SBD,2
Steven Middleton-Lowes,M,,M_M1_R,Raw,100,100,235,255,270,270,150,165,180,180,275,-305,-305,275,725,SBD,1
Dan Passmore,M,,M_M1_R,Raw,106.1,110,155,-167.5,-167.5,155,122.5,130,-135,130,200,220,232.5,232.5,517.5,SBD,2
Darren Hammond,M,,M_M1_R,Raw,110,110,-240,240,-260,240,137.5,145,-152.5,145,290,310,-322.5,310,695,SBD,1
Paul Newman,M,,M_M1_R,Raw,134.7,140,-180,185,-210,185,-185,190,-200,190,225,252.5,-265,252.5,627.5,SBD,1
Sean Hayes,M,,M_M1_R,Raw,135.9,140,,,,,205,212.5,217.5,217.5,,,,,217.5,B,1
Mark Eager,M,,M_M2_E,Single-ply,116.2,125,,,,,,,,,290,310,-320,310,310,D,1
Martin Randall,M,,M_M2_R,Raw,88.7,90,,,,,125,130,-132.5,130,,,,,130,B,1
David Gibson,M,,M_M2_R,Raw,93.9,100,,,,,140,147.5,-152.5,147.5,,,,,147.5,B,1
Richard Fricker,M,,M_M3_E,Single-ply,150.4,140+,230,260,275,275,135,160,167.5,167.5,230,260,-267.5,260,702.5,SBD,1
Nigel Orme,M,,M_M3_R,Raw,72.8,75,,,,,92.5,97.5,-100,97.5,,,,,97.5,B,1
Nigel Orme,M,,M_M3_R,Raw,72.8,75,,,,,,,,,140,150,155,155,155,D,1
Eric Conway,M,,M_M3_R,Raw,88.6,90,150,155,162.5,162.5,100,110,-115,110,200,210,217.5,217.5,490,SBD,2
Martin Hewlett,M,,M_M3_R,Raw,89.8,90,150,155,162.5,162.5,120,127.5,-132.5,127.5,180,190,205,205,495,SBD,1
Mark Taylor,M,,M_M3_R,Raw,107.9,110,200,,,200,160,-162.5,-162.5,160,220,240,260,260,620,SBD,1
Richard Kemp,M,,M_M4_R,Raw,89.3,90,125,-140,140,140,72.5,82.5,85,85,170,190,-205,190,415,SBD,1
Ray Hunter,M,,M_M6_R,Raw,97.8,100,70,80,90,90,55,60,-65,60,130,140,-150,140,290,SBD,1
Budgie Mullan,M,,M_M7_R,Raw,67.1,67.5,85,95,100,100,60,70,,70,100,115,-160,115,285,SBD,1
James Warren,M,,M_O_C,Wraps,108.8,110,235,250,-255,250,150,160,-170,160,245,255,-260,255,665,SBD,1
Jack Hillman,M,,M_O_C,Wraps,116.9,125,-220,220,-240,220,140,-155,155,155,245,255,-260,255,630,SBD,4
Bradley Scott,M,,M_O_C,Wraps,123.7,125,215,227.5,235,235,150,162.5,167.5,167.5,250,262.5,272.5,272.5,675,SBD,3
James Gilbert,M,,M_O_C,Wraps,119.6,125,-255,255,275,275,180,-190,190,190,270,290,-305,290,755,SBD,2
Grant Mcevansoneya,M,,M_O_C,Wraps,112.4,125,270,290,300,300,200,212.5,-220,212.5,270,-287.5,287.5,287.5,800,SBD,1
Hassam Zaid,M,,M_O_E,Single-ply,90.3,100,100,,,100,60,,,60,140,200,-240,200,360,SBD,2
James Taylor,M,,M_O_E,Single-ply,99.7,100,260,270,-280,270,180,200,210,210,225,245,-255,245,725,SBD,1
Leslie Watson,M,,M_O_R,Raw,43.1,44,,,,,57.5,-60,60,60,,,,,60,B,1
Dale Humphries,M,,M_O_R,Raw,65.7,67.5,145,-155,155,155,90,97.5,-102.5,97.5,200,210,-220,210,462.5,SBD,2
Aron Holliday,M,,M_O_R,Raw,65.9,67.5,150,160,170,170,135,137.5,-140,137.5,210,-225,-227.5,210,517.5,SBD,1
Mitchell Horrocks,M,,M_O_R,Raw,71.3,75,,,,,,,,,240,-260,-260,240,240,D,1
Dan Shearly,M,,M_O_R,Raw,74.4,75,160,-170,170,170,125,135,-137.5,135,225,235,-240,235,540,SBD,2
Mitchell Horrocks,M,,M_O_R,Raw,71.3,75,170,180,-190,180,110,120,-127.5,120,240,-260,-260,240,540,SBD,1
Clifford Richards,M,,M_O_R,Raw,82.2,82.5,,,,,190,200,205,205,,,,,205,B,1
Luke Nash,M,,M_O_R,Raw,82.4,82.5,170,182.5,-187.5,182.5,127.5,-135,-135,127.5,230,242.5,250,250,560,SBD,4
John Warburton,M,,M_O_R,Raw,81.7,82.5,192.5,207.5,212.5,212.5,120,127.5,-132.5,127.5,220,230,240,240,580,SBD,3
James Chapman,M,,M_O_R,Raw,82.4,82.5,225,232.5,237.5,237.5,155,160,-165,160,210,217.5,-222.5,217.5,615,SBD,2
Clifford Richards,M,,M_O_R,Raw,82.2,82.5,230,240,245,245,190,200,205,205,240,250,260,260,710,SBD,1
Liam Salmon,M,,M_O_R,Raw,89.4,90,,,,,140,147.5,150,150,,,,,150,B,1
Liam Salmon,M,,M_O_R,Raw,89.4,90,,,,,,,,,260,-275,-275,260,260,D,1
Jordan McKenzie,M,,M_O_R,Raw,89.9,90,182.5,-200,-200,182.5,110,-117.5,117.5,117.5,160,180,-202.5,180,480,SBD,6
Anthony Byron,M,,M_O_R,Raw,89.1,90,140,150,155,155,110,120,-127.5,120,-200,200,210,210,485,SBD,5
James Blundell,M,,M_O_R,Raw,89.1,90,185,200,205,205,142.5,150,-157.5,150,220,232.5,-245,232.5,587.5,SBD,4
Mitch Ravenscroft,M,,M_O_R,Raw,89.3,90,210,220,,220,160,167.5,175,175,210,220,235,235,630,SBD,3
Liam Salmon,M,,M_O_R,Raw,89.4,90,200,220,-230,220,140,147.5,150,150,260,-275,-275,260,630,SBD,2
Wylie Sung,M,,M_O_R,Raw,89.5,90,210,220,230,230,140,145,150,150,265,277.5,280,280,660,SBD,1
Edgaras Borovokovas,M,,M_O_R,Raw,97.5,100,,,,,145,152.5,-160,152.5,,,,,152.5,B,3
Gary Topley,M,,M_O_R,Raw,98.4,100,,,,,190,-200,-200,190,,,,,190,B,2
Andrew Whitaker,M,,M_O_R,Raw,97.6,100,,,,,187.5,197.5,-200,197.5,,,,,197.5,B,1
Dave Hogan,M,,M_O_R,Raw,96.7,100,170,192.5,-200,192.5,125,140,-145,140,200,212.5,-220,212.5,545,SBD,2
Steve Day,M,,M_O_R,Raw,99.7,100,215,230,-240,230,170,180,182.5,182.5,270,287.5,-295,287.5,700,SBD,1
Frankie Faber,M,,M_O_R,Raw,104.1,110,180,190,-200,190,140,150,-160,150,-200,200,-230,200,540,SBD,5
John Locke,M,,M_O_R,Raw,108.2,110,180,195,205,205,120,132.5,-137.5,132.5,225,-252.5,252.5,252.5,590,SBD,4
Steve Thresher,M,,M_O_R,Raw,107.4,110,200,212.5,220,220,135,140,-145,140,260,277.5,285,285,645,SBD,3
Kye Yabsley,M,,M_O_R,Raw,106.1,110,240,255,-260,255,170,180,-187.5,180,270,282.5,287.5,287.5,722.5,SBD,2
David Aldworth,M,,M_O_R,Raw,110,110,230,240,245,245,170,-175,175,175,300,322.5,-330,322.5,742.5,SBD,1
Matt Ball,M,,M_O_R,Raw,112,125,160,180,,180,110,120,-127.5,120,230,250,-255,250,550,SBD,3
Slavek Kochan,M,,M_O_R,Raw,114.8,125,-200,200,220,220,180,197.5,202.5,202.5,270,290,302.5,302.5,725,SBD,2
Joe Larman,M,,M_O_R,Raw,123.8,125,240,255,270,270,180,200,-210,200,280,-300,-310,280,750,SBD,1
Kamil Kamiński,M,,M_O_R,Raw,134.7,140,,,,,210,222.5,227.5,227.5,,,,,227.5,B,1
Kamil Kamiński,M,,M_O_R,Raw,134.7,140,,,,,,,,,260,285,295,295,295,D,1
Kamil Kamiński,M,,M_O_R,Raw,134.7,140,260,285,300,300,210,222.5,227.5,227.5,260,285,295,295,822.5,SBD,1
Faisal Alahaibi,M,,M_T1_R,Raw,68.7,75,,,,,105,-115,115,115,,,,,115,B,1
Faisal Alahaibi,M,,M_T1_R,Raw,68.7,75,,,,,,,,,-185,185,-195,185,185,D,1
Aron Blight,M,,M_T2_R,Raw,69.9,75,120,127.5,135,135,110,120,-130,120,170,180,-190,180,435,SBD,1
Dan Slater,M,,M_T2_R,Raw,78.7,82.5,140,150,160,160,90,100,107.5,107.5,200,220,-235,220,487.5,SBD,1
Harry Clemson,M,,M_T3_R,Raw,74.1,75,130,145,152.5,152.5,90,102.5,107.5,107.5,180,202.5,-207.5,202.5,462.5,SBD,1
Rory Stuart,M,,M_T3_R,Raw,87.6,90,180,192.5,202.5,202.5,107.5,112.5,117.5,117.5,200,,,200,520,SBD,1
