Place,Name,BirthYear,Country,BodyweightKg,Bench1Kg,Bench2Kg,Bench3Kg,Best3BenchKg,TotalKg,WeightClassKg,Division,Event,Sex,Equipment
1,Dariusz Wszoła,1978,Poland,58.82,175,180,185,185,185,59,Open,B,M,Single-ply
2,Slawomir Sledz,1976,Poland,58.39,170,-175,175,175,175,59,Open,B,M,Single-ply
3,Roman Sayfutdinov,1993,Russia,58.59,167.5,-172.5,172.5,172.5,172.5,59,Open,B,M,Single-ply
4,Fredrik Eskil Myrvang,1990,Norway,53.36,155,162.5,167.5,167.5,167.5,59,Open,B,M,Single-ply
1,Ivan Chuprinko,1986,Ukraine,65.92,232.5,240,,240,240,66,Open,B,M,Single-ply
2,Yan Urusov,1989,Russia,65.71,215,225,232.5,232.5,232.5,66,Open,B,M,Single-ply
3,Adam Balawejder,1981,Poland,65.88,210,222.5,-227.5,222.5,222.5,66,Open,B,M,Single-ply
1,Daniel Miller,1988,Poland,73.84,247.5,257.5,-262.5,257.5,257.5,74,Open,B,M,Single-ply
2,Arthur Mashinskiy,1987,Russia,73.59,-237.5,237.5,-257.5,237.5,237.5,74,Open,B,M,Single-ply
3,Tuomas Nikkilä,1978,Finland,73.47,225,-232.5,232.5,232.5,232.5,74,Open,B,M,Single-ply
4,Markus Schick,1976,Germany,73.73,232.5,-240,-240,232.5,232.5,74,Open,B,M,Single-ply
5,Renars Dronga,1988,Latvia,73.04,-225,225,-232.5,225,225,74,Open,B,M,Single-ply
6,Raik Guenterberg,1989,Germany,73.57,210,220,-227.5,220,220,74,Open,B,M,Single-ply
1,Aleksandr Gromov,1981,Russia,81.62,260,272.5,-280,272.5,272.5,83,Open,B,M,Single-ply
2,Maksim Beloborodov,1983,Russia,82.44,-270,270,-280,270,270,83,Open,B,M,Single-ply
3,Andriy Andruchshenko,1987,Ukraine,83,-250,250,255,255,255,83,Open,B,M,Single-ply
4,Kim Beck-Gundersen,1985,Norway,82.12,240,245,252.5,252.5,252.5,83,Open,B,M,Single-ply
5,Mads Friche,1982,Denmark,82.44,220,-230,-230,220,220,83,Open,B,M,Single-ply
6,Vladimír Nebola,1970,Czechia,82.56,200,-210,-210,200,200,83,Open,B,M,Single-ply
DQ,Toni Kuusi,1983,Finland,81,-242.5,-242.5,-250,,,83,Open,B,M,Single-ply
1,Eduard Tebenkov,1990,Russia,92.09,295,302.5,313,313,313,93,Open,B,M,Single-ply
2,Simon Kankkonen,1982,Finland,92.7,275,285,300,300,300,93,Open,B,M,Single-ply
3,Andrii Krymov,1985,Ukraine,92.73,300,-305,-305,300,300,93,Open,B,M,Single-ply
4,Volodymyr Bettyar,1984,Ukraine,92.89,295,-302.5,-302.5,295,295,93,Open,B,M,Single-ply
5,Mariusz Hintzke,1994,Poland,91.13,270,280,-287.5,280,280,93,Open,B,M,Single-ply
6,Tommy Navarsete,1978,Norway,92.37,265,272.5,-277.5,272.5,272.5,93,Open,B,M,Single-ply
7,Roger Narvarsete,1990,Norway,92.42,265,270,-275,270,270,93,Open,B,M,Single-ply
8,Michael Hildebrandt,1984,Germany,92.26,250,260,265,265,265,93,Open,B,M,Single-ply
9,Thomas Wetzstein,1974,Austria,91.72,252.5,260,-272.5,260,260,93,Open,B,M,Single-ply
10,Domingo Poliandri,1983,Italy,90.06,230,-240,-250,230,230,93,Open,B,M,Single-ply
11,Lieven De Saedeleer,1988,Belgium,91.47,180,-190,-190,180,180,93,Open,B,M,Single-ply
DQ,Jan Wegiera,1965,Poland,92.97,-300,-305,-305,,,93,Open,B,M,Single-ply
1,Vadym Dovhanyuk,1987,Ukraine,104.64,317.5,327.5,-336,327.5,327.5,105,Open,B,M,Single-ply
2,Viktor Leskovets,1990,Ukraine,103.46,300,310,320,320,320,105,Open,B,M,Single-ply
3,Stefan Jamroz,1980,Sweden,104.84,312.5,315,-322.5,315,315,105,Open,B,M,Single-ply
4,Tamas Sebestyen,1980,Hungary,103.82,290,302.5,-312.5,302.5,302.5,105,Open,B,M,Single-ply
5,Allan Grenier,1990,France,104.32,-302.5,302.5,-315,302.5,302.5,105,Open,B,M,Single-ply
6,Tomasz Obcowski,1979,Poland,104.49,-295,295,-305,295,295,105,Open,B,M,Single-ply
7,Khaled Ghazal,1972,Czechia,104.67,255,265,275,275,275,105,Open,B,M,Single-ply
8,Milan Sellinger,1984,Czechia,104.66,265,-275,-275,265,265,105,Open,B,M,Single-ply
9,Sven Stecklina,1974,Germany,102.86,-240,240,-250,240,240,105,Open,B,M,Single-ply
DQ,Davide Nicolin,1988,Italy,102.51,-235,-235,-245,,,105,Open,B,M,Single-ply
DQ,Mirko Vahl,1977,Germany,104.21,-250,-260,-260,,,105,Open,B,M,Single-ply
1,Sergey Selezen,1980,Russia,119.75,317.5,327.5,340,340,340,120,Open,B,M,Single-ply
2,Kevin Jäger #1,1995,Germany,117.51,330,337.5,-344,337.5,337.5,120,Open,B,M,Single-ply
3,Yuriy Kovalchuk,1979,Ukraine,119.8,300,-312.5,-317.5,300,300,120,Open,B,M,Single-ply
4,Gernot Kasparek,1975,Austria,118.8,280,-290,295,295,295,120,Open,B,M,Single-ply
5,Pavol Demčák,1977,Czechia,118.5,270,280,292.5,292.5,292.5,120,Open,B,M,Single-ply
6,Fridrich Matejík,1983,Slovakia,118.5,290,-300,-300,290,290,120,Open,B,M,Single-ply
7,Markus Karner,1970,Austria,118.24,285,-300,-302.5,285,285,120,Open,B,M,Single-ply
8,Jakob Thrane Mainz,1993,Denmark,119.7,-260,260,-300,260,260,120,Open,B,M,Single-ply
DQ,Oleksandr Petrenko,1979,Ukraine,115.05,-315,-315,-315,,,120,Open,B,M,Single-ply
DQ,Laszlo Santa,1986,Hungary,117.2,-335,-335,-343.5,,,120,Open,B,M,Single-ply
DQ,Per Marius Hole,1989,Norway,119.35,-325,,,,,120,Open,B,M,Single-ply
DQ,Lasse Leinonen,1973,Finland,119.5,-310,-310,-310,,,120,Open,B,M,Single-ply
1,Fredrik Svensson,1979,Sweden,155.6,365,370,372.5,372.5,372.5,120+,Open,B,M,Single-ply
2,Kenneth Sandvik,1975,Finland,143,350,-357.5,370,370,370,120+,Open,B,M,Single-ply
3,Alastair McColl,1981,Norway,141.7,352.5,-357.5,-360,352.5,352.5,120+,Open,B,M,Single-ply
4,Ove Lehto,1972,Finland,142.4,340,-355,-355,340,340,120+,Open,B,M,Single-ply
5,Jaroslav Šoukal,1972,Czechia,163,330,-342.5,-342.5,330,330,120+,Open,B,M,Single-ply
6,Robert Wargocki,1984,Poland,150.3,325,-342.5,-342.5,325,325,120+,Open,B,M,Single-ply
7,František Janák,1975,Czechia,125,290,300,310,310,310,120+,Open,B,M,Single-ply
8,Viktor Havai,1981,Hungary,149.8,272.5,282.5,-287.5,282.5,282.5,120+,Open,B,M,Single-ply
1,Justyna Kozdryk,1980,Poland,46.05,-110,110,117.5,117.5,117.5,47,Open,B,F,Single-ply
2,Ilka Schwengl-Forsthuber,1965,Austria,46.66,105,-110,110,110,110,47,Open,B,F,Single-ply
3,Karina Simonyants,1977,Russia,46.63,95,100,-105,100,100,47,Open,B,F,Single-ply
4,Anja Schreiner,1993,Germany,47,-90,90,-105,90,90,47,Open,B,F,Single-ply
1,Olga Golubeva,1970,Russia,51.59,112.5,117.5,120,120,120,52,Open,B,F,Single-ply
2,Marcela Sandvik,1974,Finland,51.21,112.5,115,117.5,117.5,117.5,52,Open,B,F,Single-ply
3,Monika Nyers,1978,Hungary,51.57,107.5,-115,115,115,115,52,Open,B,F,Single-ply
4,Marta Sroczyk,1995,Poland,51.22,100,-107.5,107.5,107.5,107.5,52,Open,B,F,Single-ply
5,Audrey Mingot,1993,France,51.16,105,-110,-110,105,105,52,Open,B,F,Single-ply
6,Madlena Kratiuk,1989,Poland,51.45,-80,-80,80,80,80,52,Open,B,F,Single-ply
1,Oksana Pochinkina-Sokovnina,1986,Russia,56.61,130,137.5,-145,137.5,137.5,57,Open,B,F,Single-ply
2,Ganna Gonchar,1993,Ukraine,56.66,120,125,127.5,127.5,127.5,57,Open,B,F,Single-ply
3,Mélodie Anthouard,1988,France,56.74,120,-125,-125,120,120,57,Open,B,F,Single-ply
4,Monika Sroczyk,1992,Poland,56.07,105,112.5,-120,112.5,112.5,57,Open,B,F,Single-ply
5,Hege Berge,1982,Norway,56.88,112.5,-117.5,-122.5,112.5,112.5,57,Open,B,F,Single-ply
6,Jadwiga Radwanska,1975,Poland,55.97,-110,110,-120,110,110,57,Open,B,F,Single-ply
7,Mette Rasmussen,1985,Denmark,56.43,90,-95,-95,90,90,57,Open,B,F,Single-ply
1,Fanney Hauksdóttir,1992,Iceland,61.62,142.5,-147.5,147.5,147.5,147.5,63,Open,B,F,Single-ply
2,Ekaterina Nikolaeva,1984,Russia,60.33,122.5,127.5,130,130,130,63,Open,B,F,Single-ply
3,Josephine Werngren,1976,Sweden,62.21,115,125,-132.5,125,125,63,Open,B,F,Single-ply
4,Karolina Arvidson,1985,Sweden,62.03,122.5,-127.5,-127.5,122.5,122.5,63,Open,B,F,Single-ply
5,Sonja Stefanie Krüger,1999,Germany,61.59,-107.5,107.5,-115,107.5,107.5,63,Open,B,F,Single-ply
6,Nicoletta Perego,1966,Italy,59.06,80,-85,-85,80,80,63,Open,B,F,Single-ply
DQ,Iryna Vorobiova,1980,Ukraine,62.58,-117.5,-117.5,-117.5,,,63,Open,B,F,Single-ply
1,Yulia Chistiakova,1989,Russia,71.79,160,167.5,-172.5,167.5,167.5,72,Open,B,F,Single-ply
2,Ankie Timmers,1986,Netherlands,71.47,-150,155,-167.5,155,155,72,Open,B,F,Single-ply
3,Vivien Roeder,1988,Germany,71.08,140,145,147.5,147.5,147.5,72,Open,B,F,Single-ply
4,Bianca Wienroither,1984,Austria,71.48,127.5,137.5,-150,137.5,137.5,72,Open,B,F,Single-ply
5,Yvonne Wamnes,1992,Denmark,71.66,130,-135,135,135,135,72,Open,B,F,Single-ply
6,Ina Scholz,1978,Germany,66.57,120,125,127.5,127.5,127.5,72,Open,B,F,Single-ply
7,Hana Takáčová,1954,Czechia,71.78,120,-127.5,127.5,127.5,127.5,72,Open,B,F,Single-ply
8,Krisztina Loja,1979,Hungary,63.25,82.5,-92.5,-92.5,82.5,82.5,72,Open,B,F,Single-ply
DQ,Andrea Hammarström,1977,Sweden,69.7,-165,-165,-165,,,72,Open,B,F,Single-ply
1,Ielja Strik,1973,Netherlands,83.73,177.5,185,-195,185,185,84,Open,B,F,Single-ply
2,Lyudmila Protchenko,1986,Russia,83.81,170,180,-195,180,180,84,Open,B,F,Single-ply
3,Frida Wik,1991,Sweden,76.84,142.5,150,-170,150,150,84,Open,B,F,Single-ply
4,Alexandra Tichy,1990,Austria,82.3,112.5,120,-127.5,120,120,84,Open,B,F,Single-ply
1,Sandra Lönn,1974,Sweden,111.1,215,-236,-236,215,215,84+,Open,B,F,Single-ply
2,Brenda van der Meulen,1978,Netherlands,110.26,180,187.5,195,195,195,84+,Open,B,F,Single-ply
3,Melinda Lombosi,1978,Hungary,122.18,180,187.5,195,195,195,84+,Open,B,F,Single-ply
4,Ágnes Szabó,1988,Hungary,109.34,185,192.5,-197.5,192.5,192.5,84+,Open,B,F,Single-ply
5,Tetiana Bilousova,1975,Ukraine,102.58,155,-162.5,-170,155,155,84+,Open,B,F,Single-ply
DQ,Annette Rehoff Christensen,1965,Denmark,125.27,-175,-182.5,-190,,,84+,Open,B,F,Single-ply
