Division,WeightClassKg,Place,Name,Team,BodyweightKg,Best3SquatKg,Best3BenchKg,Best3DeadliftKg,TotalKg,Equipment,Event,Sex
Boys,52,1,Anthony Phimmasone,Fort Worth Boswell,51.35,113.4,58.97,142.88,315.25,Single-ply,SBD,M
Boys,52,2,Patrick Toy,Azle,51.53,79.38,52.16,92.99,224.53,Single-ply,SBD,M
Boys,56,1,Felipe Hernandez #2,Saginaw,55.79,140.61,81.65,149.69,371.95,Single-ply,SBD,M
Boys,56,2,Artavion Harrell,Azle,54.34,122.47,61.23,129.27,312.98,Single-ply,SBD,M
Boys,56,3,Brandon Balderama,Saginaw,52.8,104.33,54.43,117.93,276.69,Single-ply,SBD,M
Boys,56,4,Arlind Quierman,White Settlement Brewer,54.34,127.01,72.57,,199.58,Single-ply,SB,M
Boys,60,1,Tin Nguyen,Weatherford,59.87,151.95,74.84,147.42,374.21,Single-ply,SBD,M
Boys,60,2,Carlos Davila,Keller Central,57.52,142.88,79.38,142.88,365.14,Single-ply,SBD,M
Boys,60,3,Preston Whaley,Fort Worth Chisholm Trail,58.69,129.27,74.84,140.61,344.73,Single-ply,SBD,M
Boys,60,4,Collin Biggers,Fort Worth Boswell,58.6,122.47,81.65,129.27,333.39,Single-ply,SBD,M
Boys,60,5,Lawrence Chavez,Saginaw,55.97,111.13,68.04,142.88,322.05,Single-ply,SBD,M
Boys,60,6,Holden Fry,Springtown,56.7,108.86,63.5,131.54,303.91,Single-ply,SBD,M
Boys,60,7,Logan Lopez,Aledo,57.88,115.67,63.5,113.4,292.57,Single-ply,SBD,M
Boys,60,8,Brayden Brown,Granbury,56.25,131.54,,138.35,269.89,Single-ply,SD,M
Boys,60,9,Colton Bear,White Settlement Brewer,56.97,,77.11,113.4,190.51,Single-ply,BD,M
Boys,67.5,1,Fred Tshitoko,Saginaw,65.77,185.97,90.72,197.31,474,Single-ply,SBD,M
Boys,67.5,2,Garrett Wright,Fort Worth Boswell,64.41,167.83,102.06,176.9,446.79,Single-ply,SBD,M
Boys,67.5,3,Hayden Ekas,Weatherford,64.77,174.63,83.91,183.7,442.25,Single-ply,SBD,M
Boys,67.5,4,Deonte Lyons,Saginaw,63.5,167.83,90.72,167.83,426.38,Single-ply,SBD,M
Boys,67.5,5,Scotty Pryor,Granbury,65.77,147.42,102.06,151.95,401.43,Single-ply,SBD,M
Boys,67.5,6,Garrett Kenny,White Settlement Brewer,66.95,142.88,83.91,154.22,381.02,Single-ply,SBD,M
Boys,67.5,7,Paul Eppright,Fort Worth Chisholm Trail,66.77,129.27,68.04,142.88,340.19,Single-ply,SBD,M
Boys,67.5,8,Will Bertram,Aledo,61.23,120.2,74.84,136.08,331.12,Single-ply,SBD,M
Boys,67.5,9,Cameron Beagle,Fort Worth Boswell,65.41,133.81,83.91,,217.72,Single-ply,SB,M
Boys,75,1,Kyron Jackson,Saginaw,74.39,210.92,122.47,199.58,532.97,Single-ply,SBD,M
Boys,75,2,Trent Melton,Granbury,73.48,210.92,97.52,188.24,496.68,Single-ply,SBD,M
Boys,75,3,Dominick Segoviano,Fort Worth Boswell,74.03,183.7,104.33,190.51,478.54,Single-ply,SBD,M
Boys,75,4,Jordan McNeely,Azle,71.49,179.17,111.13,183.7,474,Single-ply,SBD,M
Boys,75,5,Jordan Wilkerson,Granbury,73.03,176.9,102.06,174.63,453.59,Single-ply,SBD,M
Boys,75,6,Jason Munoz,Aledo,74.03,170.1,97.52,170.1,437.72,Single-ply,SBD,M
Boys,75,7,Carson McCone,Aledo,73.12,156.49,86.18,170.1,412.77,Single-ply,SBD,M
Boys,75,8,Jacob Peters,Springtown,74.39,142.88,81.65,188.24,412.77,Single-ply,SBD,M
Boys,75,9,Easton Walker,Aledo,72.3,149.69,86.18,165.56,401.43,Single-ply,SBD,M
Boys,75,DQ,Dominique Orozco,Saginaw,72.57,,,,,Single-ply,SBD,M
Boys,75,DQ,Maverick Boyle,Weatherford,74.03,,,,,Single-ply,SBD,M
Boys,82.5,1,Richedi Tshitoko,Saginaw,80.74,188.24,106.59,222.26,517.1,Single-ply,SBD,M
Boys,82.5,2,Justin Bratten,Fort Worth Boswell,77.93,190.51,111.13,208.65,510.29,Single-ply,SBD,M
Boys,82.5,3,Damon Williams,Fort Worth Boswell,80.2,190.51,124.74,192.78,508.02,Single-ply,SBD,M
Boys,82.5,4,Montana Harthcock,Springtown,77.11,188.24,90.72,217.72,496.68,Single-ply,SBD,M
Boys,82.5,5,Keyshawn Gbanqui,Fort Worth Chisholm Trail,80.65,165.56,113.4,204.12,483.08,Single-ply,SBD,M
Boys,82.5,6,Ryan Carper,Weatherford,79.47,181.44,117.93,181.44,480.81,Single-ply,SBD,M
Boys,82.5,7,Josh Lamb,Aledo,80.1,156.49,111.13,161.03,428.64,Single-ply,SBD,M
Boys,82.5,8,Alex Kemp,White Settlement Brewer,78.02,149.69,104.33,158.76,412.77,Single-ply,SBD,M
Boys,82.5,9,Michael Trull,Granbury,77.56,133.81,88.45,158.76,381.02,Single-ply,SBD,M
Boys,82.5,10,Justin Livingston,Weatherford,81.37,208.65,,,208.65,Single-ply,S,M
Boys,82.5,11,Baret Tedder,Springtown,78.02,174.63,,,174.63,Single-ply,S,M
Boys,82.5,DQ,Sam Rogers,Azle,79.47,,,,,Single-ply,SBD,M
Boys,82.5,DQ,Tyson McDaniel,Fort Worth Chisholm Trail,77.56,,,,,Single-ply,SBD,M
Boys,90,1,Jaytron Phillips,Fort Worth Chisholm Trail,89.54,233.6,149.69,258.55,641.83,Single-ply,SBD,M
Boys,90,2,Braden Robertson,Weatherford,86.09,235.87,142.88,224.53,603.28,Single-ply,SBD,M
Boys,90,3,Blake Raines,White Settlement Brewer,89.63,204.12,147.42,204.12,555.65,Single-ply,SBD,M
Boys,90,4,Kameron Shields,White Settlement Brewer,88,219.99,120.2,197.31,537.51,Single-ply,SBD,M
Boys,90,5,Derrick Munoz,Saginaw,89.36,192.78,106.59,199.58,498.95,Single-ply,SBD,M
Boys,90,6,Drake Sanders,Granbury,88.9,165.56,124.74,206.38,496.68,Single-ply,SBD,M
Boys,90,7,Guillermo Pando,Springtown,88,185.97,117.93,188.24,492.15,Single-ply,SBD,M
Boys,90,8,Jameel Mainor,Fort Worth Chisholm Trail,86.09,183.7,104.33,192.78,480.81,Single-ply,SBD,M
Boys,90,9,Tyler White,Springtown,84.37,158.76,113.4,183.7,455.86,Single-ply,SBD,M
Boys,100,1,Jake Bearid,Weatherford,97.25,249.48,124.74,213.19,587.4,Single-ply,SBD,M
Boys,100,2,Jason Umanzor,Granbury,97.98,233.6,117.93,201.85,553.38,Single-ply,SBD,M
Boys,100,3,Davion Jones,Azle,92.53,215.46,122.47,192.78,530.7,Single-ply,SBD,M
Boys,100,4,Tyler Jensen,Azle,93.98,226.8,120.2,183.7,530.7,Single-ply,SBD,M
Boys,100,5,Travis Williams,Fort Worth Chisholm Trail,94.08,201.85,108.86,204.12,514.83,Single-ply,SBD,M
Boys,100,6,Kyrese McFarland,Fort Worth Boswell,95.98,206.38,99.79,170.1,476.27,Single-ply,SBD,M
Boys,100,7,Sukhman Singh,Granbury,97.07,190.51,92.99,176.9,460.4,Single-ply,SBD,M
Boys,100,8,Parker Sims,Aledo,95.98,156.49,86.18,163.29,405.97,Single-ply,SBD,M
Boys,100,9,Derrick Mayweather,Fort Worth Chisholm Trail,94.35,192.78,,,192.78,Single-ply,S,M
Boys,110,1,Raul Sandoval,Granbury,108.41,254.01,156.49,233.6,644.1,Single-ply,SBD,M
Boys,110,2,Drew Smith,Azle,107.23,235.87,142.88,217.72,596.47,Single-ply,SBD,M
Boys,110,3,Elijah Dean,Weatherford,102.87,217.72,131.54,195.04,544.31,Single-ply,SBD,M
Boys,110,4,Drew Barton,Aledo,101.15,183.7,113.4,201.85,498.95,Single-ply,SBD,M
Boys,110,5,Alexander Frithiof,Springtown,104.78,142.88,95.25,172.37,410.5,Single-ply,SBD,M
Boys,125,1,Justin Watson,Fort Worth Boswell,119.75,256.28,147.42,231.33,635.03,Single-ply,SBD,M
Boys,125,2,Brandon Edwards,Weatherford,117.57,260.82,156.49,199.58,616.89,Single-ply,SBD,M
Boys,125,3,Jett Reed,White Settlement Brewer,114.58,226.8,124.74,199.58,551.11,Single-ply,SBD,M
Boys,125,4,Andrew Lutz,Azle,117.93,219.99,136.08,195.04,551.11,Single-ply,SBD,M
Boys,125,5,Sawyer Caldwell,Granbury,118.84,204.12,129.27,199.58,532.97,Single-ply,SBD,M
Boys,125,6,Joseph Alfaro,White Settlement Brewer,120.29,226.8,113.4,192.78,532.97,Single-ply,SBD,M
Boys,125,7,Max Michaels,Fort Worth Boswell,117.66,208.65,124.74,195.04,528.44,Single-ply,SBD,M
Boys,125,8,Raylee Ramirez,Fort Worth Chisholm Trail,120.66,215.46,102.06,197.31,514.83,Single-ply,SBD,M
Boys,125,9,Jared Luth,Saginaw,116.12,192.78,113.4,188.24,494.42,Single-ply,SBD,M
Boys,125,10,Gavin Gardner-Knight,Aledo,110.31,183.7,113.4,181.44,478.54,Single-ply,SBD,M
Boys,125,11,Justin Mayo,White Settlement Brewer,121.47,190.51,102.06,183.7,476.27,Single-ply,SBD,M
Boys,125+,1,Jake Allsbrooks,Fort Worth Boswell,134.9,326.59,138.35,208.65,673.58,Single-ply,SBD,M
Boys,125+,2,Jesse Springfield,Springtown,127.28,272.16,147.42,249.48,669.05,Single-ply,SBD,M
Boys,125+,3,James Williams,Aledo,133.81,290.3,142.88,229.06,662.24,Single-ply,SBD,M
Boys,125+,4,Taylor Bitters,White Settlement Brewer,144.97,285.76,124.74,226.8,637.3,Single-ply,SBD,M
Boys,125+,5,Fernando Sanchez,Granbury,132.45,244.94,145.15,231.33,621.42,Single-ply,SBD,M
Boys,125+,6,Bryson Hernandez,Saginaw,167.38,235.87,124.74,249.48,610.08,Single-ply,SBD,M
Boys,125+,7,Chase Slack,Azle,129.64,215.46,138.35,215.46,569.26,Single-ply,SBD,M
Boys,125+,8,Jonathan Renteria,Weatherford,132.09,213.19,129.27,208.65,551.11,Single-ply,SBD,M
Boys,125+,9,Michael Ward,Springtown,132.27,222.26,104.33,208.65,535.24,Single-ply,SBD,M
Boys,125+,10,Raylen Smith,Azle,138.25,235.87,120.2,165.56,521.63,Single-ply,SBD,M
Boys,125+,11,James Lochabay,Azle,132.45,192.78,117.93,208.65,519.36,Single-ply,SBD,M
Boys,125+,12,Joseph Olmos,Fort Worth Chisholm Trail,126.19,183.7,102.06,167.83,453.59,Single-ply,SBD,M
