Event,Sex,Name,State,BodyweightKg,WeightClassKg,Division,Best3SquatKg,Best3BenchKg,Best3DeadliftKg,TotalKg,Equipment,Place
B,M,Jamie Emberly,NF,82.5,82.5,Junior,,145.0,,145.0,Single-ply,1
B,M,Richard Bartlett,AB,74.15,75,Junior,,92.5,,92.5,Single-ply,1
B,M,Rick Evans,AB,59,60,Junior,,115.0,,115.0,Single-ply,1
B,M,Scott Erichsen,MB,157.75,125+,Junior,,130.0,,130.0,Single-ply,2
B,M,Clyde Deveau,NS,140.5,125+,Junior,,140.0,,140.0,Single-ply,1
B,M,Ian Diack,AB,107.95,110,Junior,,142.5,,142.5,Single-ply,1
B,M,Pat Montague,SK,99.6,100,Junior,,160.0,,160.0,Single-ply,1
