Place,WeightClassKg,Name,Equipment,Team,BodyweightKg,Squat1Kg,Squat2Kg,Squat3Kg,Best3SquatKg,Bench1Kg,Bench2Kg,Bench3Kg,Best3BenchKg,Deadlift1Kg,Deadlift2Kg,Deadlift3Kg,Best3DeadliftKg,TotalKg,Division,Sex,Event
DQ,60,Lene Ødegård,Single-ply,Nes SIL,56.80,120,130,140,140.0,-60,-62.5,-62.5,,,,,,,Junior 19-23,F,SB
1,75,Morten H. Wang,Single-ply,IL Kraftsport,72.20,140,-150,-150,140.0,115,120,-125,120.0,190,-215,,190.0,450,Junior 19-23,M,SBD
2,75,Odd-Arild Maarud,Single-ply,Nes SIL,72.40,-150,-150,150,150.0,-80,80,-85,80.0,170,185,190,190.0,420,Junior 19-23,M,SBD
1,52,Svein Walstad,Single-ply,IL Kraftsport,51.30,100,110,,110.0,80,85,87.5,87.5,120,130,142.5,142.5,340,Open,M,SBD
1,100,Paal Sørhagen,Single-ply,Lørenskog AK,96.00,220,235,240,240.0,125,132.5,-135,132.5,250,-265,,250.0,622.5,Open,M,SBD
1,110,Vidar Johansen,Single-ply,Nes SIL,104.80,180,190,200,200.0,135,140,145,145.0,245,255,-265,255.0,600,Open,M,SBD
