Name,Age,Sex,Tested,Division,Equipment,BodyweightKg,WeightClassKg,Squat1Kg,Squat2Kg,Squat3Kg,Best3SquatKg,Bench1Kg,Bench2Kg,Bench3Kg,Best3BenchKg,Deadlift1Kg,Deadlift2Kg,Deadlift3Kg,Best3DeadliftKg,TotalKg,Event,Place
Lia Sulkin,41,F,Yes,Masters 40-49,Wraps,51.62,52,83.91,-90.72,-92.99,83.91,54.43,58.97,-63.5,58.97,88.45,92.99,-99.79,92.99,235.87,SBD,1
William Carlough,51,M,Yes,Masters 50-59,Multi-ply,80.74,82.5,-238.14,242.67,-254.01,242.67,188.24,-192.78,,188.24,201.85,213.19,,213.19,644.1,SBD,1
Tony Winarski,25,M,Yes,Open,Raw,80.83,82.5,,,,,111.13,124.74,-140.61,124.74,183.7,199.58,208.65,208.65,333.39,BD,1
Jim Caiafa,37,M,Yes,Open,Wraps,99.79,100,170.1,188.24,199.58,199.58,142.88,151.95,-161.03,151.95,219.99,238.14,-249.48,238.14,589.67,SBD,1
Jim Caiafa,37,M,Yes,Submasters 35-39,Wraps,99.79,100,170.1,188.24,199.58,199.58,142.88,151.95,-161.03,151.95,219.99,238.14,-249.48,238.14,589.67,SBD,1
Alexander Ersing,25,M,Yes,Open,Raw,72.12,75,,,,,-102.06,113.4,127.01,127.01,,,,,127.01,B,1
Bryson Peterson,9,M,Yes,Youth,Raw,34.02,39,,,,,20.41,22.68,-27.22,22.68,,,,,22.68,B,1
